{
  "page": 1,
  "total_results": 305947,
  "total_pages": 15298,
  "results": [
    {
      "vote_count": 2,
      "id": 427348,
      "video": false,
      "vote_average": 7,
      "title": "Carbone",
      "popularity": 14.148845,
      "poster_path": "/lXq75NmasKjE5KpLF1Ht4fusCNv.jpg",
      "original_language": "fr",
      "original_title": "Carbone",
      "genre_ids": [
        80
      ],
      "backdrop_path": "/hD1BEIcn05cfOp7M7lnavpzkwP7.jpg",
      "adult": false,
      "overview": "In danger of losing his business, Anthony Roca, an ordinary man, develops a scam that will become the heist of the century. Overtaken by the crime, he will have to deal with betrayal, murder and settling.",
      "release_date": "2017-11-01"
    },
    {
      "vote_count": 1,
      "id": 452188,
      "video": false,
      "vote_average": 6,
      "title": "Daddy Cool",
      "popularity": 12.008508,
      "poster_path": "/hrvJ9udxSMSy3GhJeDWuYTZB93x.jpg",
      "original_language": "fr",
      "original_title": "Daddy Cool",
      "genre_ids": [
        35
      ],
      "backdrop_path": "/gnLct5guOBkShgOGzADKa9zkhvO.jpg",
      "adult": false,
      "overview": "",
      "release_date": "2017-11-01"
    },
    {
      "vote_count": 2,
      "id": 280489,
      "video": false,
      "vote_average": 0,
      "title": "Mettle of Honor",
      "popularity": 49.435058,
      "poster_path": null,
      "original_language": "en",
      "original_title": "Mettle of Honor",
      "genre_ids": [
        18,
        12,
        28,
        80
      ],
      "backdrop_path": "/idWN5QfOgAlWQsuKqyzkJWs7D6p.jpg",
      "adult": false,
      "overview": "When a gang of kidnappers takes their young hostage to an abandoned building to await a $100 million ransom, a homeless Vietnam vet who lives in the building becomes her only hope for salvation.",
      "release_date": "2017-11-01"
    },
    {
      "vote_count": 0,
      "id": 416051,
      "video": false,
      "vote_average": 0,
      "title": "Based on a True Story",
      "popularity": 12.481768,
      "poster_path": "/q2CjMmpXL3ivMqwgfdphUSBobc1.jpg",
      "original_language": "fr",
      "original_title": "D'après une histoire vraie",
      "genre_ids": [
        18,
        53
      ],
      "backdrop_path": "/mg6ArKxczAzQ05inISFTIfWUOH3.jpg",
      "adult": false,
      "overview": "A writer goes through a tough period after the release of her latest book, as she gets involved with an obsessive admirer.",
      "release_date": "2017-11-01"
    },
    {
      "vote_count": 0,
      "id": 434007,
      "video": false,
      "vote_average": 0,
      "title": "Eine sachliche Romanze",
      "popularity": 10.580263,
      "poster_path": null,
      "original_language": "de",
      "original_title": "Eine sachliche Romanze",
      "genre_ids": [
        35
      ],
      "backdrop_path": null,
      "adult": false,
      "overview": "",
      "release_date": "2017-11-01"
    },
    {
      "vote_count": 0,
      "id": 436327,
      "video": false,
      "vote_average": 0,
      "title": "Für jede Lösung ein Problem",
      "popularity": 11.224159,
      "poster_path": "/h2VujdfHCKh9GfCIHYsPnYzGQFw.jpg",
      "original_language": "de",
      "original_title": "Für jede Lösung ein Problem",
      "genre_ids": [
        35
      ],
      "backdrop_path": null,
      "adult": false,
      "overview": "",
      "release_date": "2017-11-01"
    },
    {
      "vote_count": 0,
      "id": 447682,
      "video": false,
      "vote_average": 0,
      "title": "Boundaries",
      "popularity": 42.429661,
      "poster_path": null,
      "original_language": "en",
      "original_title": "Boundaries",
      "genre_ids": [
        35,
        18
      ],
      "backdrop_path": null,
      "adult": false,
      "overview": "Single mom Laura, along with her awkward 14 year-old son Henry is forced to drive Jack, her estranged, care-free pot dealing father across country after he's kicked out of yet another nursing home.",
      "release_date": "2017-11-01"
    },
    {
      "vote_count": 0,
      "id": 466485,
      "video": false,
      "vote_average": 0,
      "title": "Notorious",
      "popularity": 1.005617,
      "poster_path": "/g7K9B3figgrs4HGx5b28ci5rhnU.jpg",
      "original_language": "en",
      "original_title": "Notorious",
      "genre_ids": [
        99
      ],
      "backdrop_path": "/mZm2ZSU4IGnHsCWI1ueiBY2XoaP.jpg",
      "adult": false,
      "overview": "Conor McGregor is the biggest star in the history of Mixed Martial Arts. Filmed over the course of 4 years, Notorious is the exclusive, all-access account of Conor’s meteoric rise from claiming benefits and living in his parents' spare room in Dublin to claiming multiple championship UFC belts and seven figure pay-packets in Las Vegas.",
      "release_date": "2017-11-01"
    },
    {
      "vote_count": 4,
      "id": 452016,
      "video": false,
      "vote_average": 0,
      "title": "Montparnasse Bienvenüe",
      "popularity": 11.860546,
      "poster_path": "/wa4eAo4eCJ1S0i5JrZ1Z74L2LEC.jpg",
      "original_language": "fr",
      "original_title": "Jeune femme",
      "genre_ids": [],
      "backdrop_path": "/bM09HP5n8XevzyeqNWXI10D7c5r.jpg",
      "adult": false,
      "overview": "Broke, with nothing but her cat to her name and doors closing in her face, Paula is back in Paris after a long absence. As she meets different people along the way, there is one thing she knows for sure: she's determined to make a new start and she'll do it with style and panache.",
      "release_date": "2017-11-01"
    },
    {
      "vote_count": 6,
      "id": 430474,
      "video": false,
      "vote_average": 0,
      "title": "Deep",
      "popularity": 13.411224,
      "poster_path": "/zMZTBbBa9eevwpWoVIVHh4Gm1ij.jpg",
      "original_language": "en",
      "original_title": "Deep",
      "genre_ids": [
        16
      ],
      "backdrop_path": "/3fUule7CGt4Eq1lPPqyz3qSXa8C.jpg",
      "adult": false,
      "overview": "In 2100, when humanity has abandoned the earth, a colony of extravagant creatures still thrives in the deepest abyss of the ocean.",
      "release_date": "2017-11-01"
    },
    {
      "vote_count": 0,
      "id": 442076,
      "video": false,
      "vote_average": 0,
      "title": "The Void",
      "popularity": 54.329524,
      "poster_path": "/4FnOnf14qlWpQiFWdryk6UtjENU.jpg",
      "original_language": "en",
      "original_title": "The Void",
      "genre_ids": [
        27
      ],
      "backdrop_path": null,
      "adult": false,
      "overview": "A man is alone in his apartment as an ominous hourglass runs out, and strange things start to happen.",
      "release_date": "2017-11-01"
    },
    {
      "vote_count": 0,
      "id": 466266,
      "video": false,
      "vote_average": 0,
      "title": "In the Park",
      "popularity": 10.560823,
      "poster_path": "/wB2gh9Nz4atA2yXcAl15cmJ0vt1.jpg",
      "original_language": "es",
      "original_title": "En El Parque",
      "genre_ids": [
        27
      ],
      "backdrop_path": null,
      "adult": false,
      "overview": "In a park, a girl sends a message to her boyfriend. Something interrupts her.",
      "release_date": "2017-11-01"
    },
    {
      "vote_count": 4,
      "id": 444395,
      "video": false,
      "vote_average": 0,
      "title": "Jupiter's Moon",
      "popularity": 16.762508,
      "poster_path": "/r5cRqRRuuNM5TeqVIGIEBl9DIf.jpg",
      "original_language": "hu",
      "original_title": "Jupiter holdja",
      "genre_ids": [
        878,
        18
      ],
      "backdrop_path": "/i5St0PWbDpmKP3ghAaTYgME5Ojr.jpg",
      "adult": false,
      "overview": "A young immigrant is shot down while illegally crossing the border. Terrified and in shock, wounded Aryan can now mysteriously levitate at will. Thrown into a refugee camp, he is smuggled out by Dr Stern, intent on exploiting his extraordinary secret. Pursued by enraged camp director Laszlo, the fugitives remain on the move in search of safety and money. Inspired by Aryan's amazing powers, Stern takes a leap of faith in a world where miracles are trafficked for small change...",
      "release_date": "2017-11-01"
    },
    {
      "vote_count": 0,
      "id": 478009,
      "video": false,
      "vote_average": 0,
      "title": "Passport",
      "popularity": 12.044639,
      "poster_path": null,
      "original_language": "hu",
      "original_title": "Paszport",
      "genre_ids": [],
      "backdrop_path": null,
      "adult": false,
      "overview": "The slow decay of a marriage sets the stage for this drama, which is leavened with understated humor. In 1988, Jozsi (Gergely Kocsis) is a Hungarian laborer who decides to marry Elizaveta (Eniko Borcsok), a woman of Hungarian descent living in the Ukraine. 1996 finds Joszi and Elizaveta the parents of a young girl, but otherwise their marriage is a shambles; Jozsi has become an alcoholic and Elizaveta has decided she needs to strike out on her own for the sake of her child. Shot on digital video as a project for Hungarian television, Paszport was directed by Peter Gothar, who previously made the international success Megall Az Ido.",
      "release_date": "2017-11-01"
    },
    {
      "vote_count": 0,
      "id": 478758,
      "video": false,
      "vote_average": 0,
      "title": "Thom Pain",
      "popularity": 11.528777,
      "poster_path": null,
      "original_language": "en",
      "original_title": "Thom Pain",
      "genre_ids": [],
      "backdrop_path": null,
      "adult": false,
      "overview": "Thom Pain is just like you, except worse. One night, he finds himself on a stage, in the dark, in a theatre. In the audience are people who, just like him, were born and will die. Thom is going to try to make sense of it all. He's going to try to save his life, to save their life, to save your life - in that order. A camera crew captures the night, as various forces align to produce a reckless and accidentally profound event.",
      "release_date": "2017-11-01"
    },
    {
      "vote_count": 0,
      "id": 482116,
      "video": false,
      "vote_average": 0,
      "title": "Draken & Deuntjes",
      "popularity": 11.227168,
      "poster_path": "/kR46aiA3K9Mz8YnqGckEPSwXkTr.jpg",
      "original_language": "nl",
      "original_title": "Draken & Deuntjes",
      "genre_ids": [
        16
      ],
      "backdrop_path": "/jK4csZJOMjPZqJEXHH8lWZJo6V8.jpg",
      "adult": false,
      "overview": "Compilation of five fairytalelike and musical films for little maidens and knights.",
      "release_date": "2017-11-01"
    },
    {
      "vote_count": 0,
      "id": 481789,
      "video": false,
      "vote_average": 0,
      "title": "The Ghost Bride",
      "popularity": 12.124092,
      "poster_path": "/1XzxdhF9Voz6qtag3mUkVD4jp5N.jpg",
      "original_language": "tl",
      "original_title": "The Ghost Bride",
      "genre_ids": [
        27
      ],
      "backdrop_path": "/4UGhO0cAO4pgKq86BhMsrkNruhO.jpg",
      "adult": false,
      "overview": "To save her family from being homeless and her father suffering from a heart condition, Mayen desperately agrees to take the offer of a Chinese matchmaker for a huge amount of money. In exchange, Mayen must submit herself as a Ghost Bride to a wealthy but dead Chinese man. This deal, however, happens to be a deadly curse when the deceased groom's ghost becomes jealous and possessive of Mayen.",
      "release_date": "2017-11-01"
    },
    {
      "vote_count": 0,
      "id": 473813,
      "video": false,
      "vote_average": 0,
      "title": "Une vie sans sexe?",
      "popularity": 11.954931,
      "poster_path": null,
      "original_language": "fr",
      "original_title": "Une vie sans sexe?",
      "genre_ids": [
        99
      ],
      "backdrop_path": "/2NGBhiwYlMz7Qm2QQs1mY93XxSb.jpg",
      "adult": false,
      "overview": "",
      "release_date": "2017-11-01"
    },
    {
      "vote_count": 0,
      "id": 469906,
      "video": false,
      "vote_average": 0,
      "title": "Hizukuri",
      "popularity": 10.729758,
      "poster_path": "/nLZxVYieZkKIEf7ycEPOcxMIpGe.jpg",
      "original_language": "ja",
      "original_title": "火づくり",
      "genre_ids": [
        16
      ],
      "backdrop_path": "/rd1ipBikg4rcvPlw4WtZKOufzQl.jpg",
      "adult": false,
      "overview": "In a city of a parallel world. A boy finds a pair of broken scissors from his father's belongings after he passed away. And a boy's mother tells him that his father had been a gardener in the past. Then he figures out the scissors were made by Sasuke, who is an artisan living in a foreign country. The boy travels all the way to a place where Sasuke lives in order to get his scissors fixed.",
      "release_date": "2017-11-01"
    },
    {
      "vote_count": 0,
      "id": 484619,
      "video": false,
      "vote_average": 0,
      "title": "The Bittersweet",
      "popularity": 1,
      "poster_path": "/cM9Jxz8dzR5SpwcsQ9IaWvIDb3o.jpg",
      "original_language": "fr",
      "original_title": "The Bittersweet",
      "genre_ids": [
        18,
        53
      ],
      "backdrop_path": null,
      "adult": false,
      "overview": "",
      "release_date": "2017-11-01"
    }
  ]
}