{
  "page": 2,
  "total_results": 305951,
  "total_pages": 15298,
  "results": [
    {
      "vote_count": 0,
      "id": 469906,
      "video": false,
      "vote_average": 0,
      "title": "Hizukuri",
      "popularity": 10.729758,
      "poster_path": "/nLZxVYieZkKIEf7ycEPOcxMIpGe.jpg",
      "original_language": "ja",
      "original_title": "火づくり",
      "genre_ids": [
        16
      ],
      "backdrop_path": "/rd1ipBikg4rcvPlw4WtZKOufzQl.jpg",
      "adult": false,
      "overview": "In a city of a parallel world. A boy finds a pair of broken scissors from his father's belongings after he passed away. And a boy's mother tells him that his father had been a gardener in the past. Then he figures out the scissors were made by Sasuke, who is an artisan living in a foreign country. The boy travels all the way to a place where Sasuke lives in order to get his scissors fixed.",
      "release_date": "2017-11-01"
    },
    {
      "vote_count": 0,
      "id": 478758,
      "video": false,
      "vote_average": 0,
      "title": "Thom Pain",
      "popularity": 11.528777,
      "poster_path": null,
      "original_language": "en",
      "original_title": "Thom Pain",
      "genre_ids": [],
      "backdrop_path": null,
      "adult": false,
      "overview": "Thom Pain is just like you, except worse. One night, he finds himself on a stage, in the dark, in a theatre. In the audience are people who, just like him, were born and will die. Thom is going to try to make sense of it all. He's going to try to save his life, to save their life, to save your life - in that order. A camera crew captures the night, as various forces align to produce a reckless and accidentally profound event.",
      "release_date": "2017-11-01"
    },
    {
      "vote_count": 1,
      "id": 483737,
      "video": false,
      "vote_average": 10,
      "title": "Totem",
      "popularity": 4.92,
      "poster_path": "/mSkn26yhiTeg9WR9Dt8r8zNZZW9.jpg",
      "original_language": "en",
      "original_title": "Totem",
      "genre_ids": [
        27
      ],
      "backdrop_path": "/5WMIFunFgsmPrQWrijUXO4MXkFX.jpg",
      "adult": false,
      "overview": "A teen must resort to extreme measures to protect her family from a supernatural entity.",
      "release_date": "2017-10-31"
    },
    {
      "vote_count": 0,
      "id": 399030,
      "video": false,
      "vote_average": 0,
      "title": "Backwood Madness",
      "popularity": 12.526549,
      "poster_path": "/ghj9VVTqNiXJTkBBcwNoDi8LFSq.jpg",
      "original_language": "fi",
      "original_title": "Backwood Madness",
      "genre_ids": [
        14,
        27
      ],
      "backdrop_path": "/a9IyX1fefdY2L48rwaQpj4L3hVa.jpg",
      "adult": false,
      "overview": "The war amongst men had an influence on the beings of the forest. Now the beings demand revenge. Balance between men and the forest has been broken.",
      "release_date": "2017-10-31"
    },
    {
      "vote_count": 0,
      "id": 462805,
      "video": false,
      "vote_average": 0,
      "title": "VHS Lives 2: Undead Format",
      "popularity": 13.609544,
      "poster_path": "/4qKVWBnWm7Nz5JNbpGujGAGFECY.jpg",
      "original_language": "en",
      "original_title": "VHS Lives 2: Undead Format",
      "genre_ids": [],
      "backdrop_path": null,
      "adult": false,
      "overview": "VHS Collecting, SOV filmmaking and all things VHS.\r Follows VHS Lives: A Schlockumentary (2017)",
      "release_date": "2017-10-31"
    },
    {
      "vote_count": 0,
      "id": 443018,
      "video": false,
      "vote_average": 0,
      "title": "Powerbomb",
      "popularity": 21.915476,
      "poster_path": "/axIYlwPoBbDTXvg4z6oXbAEmUv6.jpg",
      "original_language": "en",
      "original_title": "Powerbomb",
      "genre_ids": [
        18,
        27,
        53
      ],
      "backdrop_path": null,
      "adult": false,
      "overview": "An obsessive fan kidnaps his favorite up-and-coming wrestling star.",
      "release_date": "2017-10-31"
    },
    {
      "vote_count": 0,
      "id": 387706,
      "video": false,
      "vote_average": 0,
      "title": "The BBitch",
      "popularity": 13.948011,
      "poster_path": "/j5UIs3nV3JSrFEOoRnn8QtC6Nqv.jpg",
      "original_language": "en",
      "original_title": "The BBitch",
      "genre_ids": [
        28,
        27,
        35
      ],
      "backdrop_path": null,
      "adult": false,
      "overview": "Based on the true story of the Salem Witch Trials, a mayor and a Native American warrior go on a witch hunt to find Giles Corey, who plots to unleash Hell on Earth.",
      "release_date": "2017-10-31"
    },
    {
      "vote_count": 1,
      "id": 353184,
      "video": false,
      "vote_average": 0,
      "title": "Goblin 2",
      "popularity": 13.937126,
      "poster_path": null,
      "original_language": "de",
      "original_title": "Goblin 2",
      "genre_ids": [
        27,
        35
      ],
      "backdrop_path": null,
      "adult": false,
      "overview": "Upcoming horror comedy directed by Eric Hordes.",
      "release_date": "2017-10-31"
    },
    {
      "vote_count": 1,
      "id": 404357,
      "video": false,
      "vote_average": 0,
      "title": "Deadwood Falls",
      "popularity": 15.078688,
      "poster_path": null,
      "original_language": "en",
      "original_title": "Deadwood Falls",
      "genre_ids": [
        18,
        27
      ],
      "backdrop_path": null,
      "adult": false,
      "overview": "The town of Deadwood Falls is no more. On Christmas Eve 2003, all 479 men, women and children simply disappeared overnight. There were no footprints into or out of the snowbound town. Leaving behind all of their belongings, the townspeople vanished without a trace. Only one person was found-a man whose body was burned from head to toe and who has remained in a coma all these years. Until tonight that is-on the 7th anniversary of the town's disappearance, the mysterious survivor has awakened...",
      "release_date": "2017-10-31"
    },
    {
      "vote_count": 1,
      "id": 408927,
      "video": false,
      "vote_average": 0,
      "title": "Mayavan",
      "popularity": 12.570111,
      "poster_path": "/A1FHOHSV1hBJy9vEn5xIqr2OxD8.jpg",
      "original_language": "ta",
      "original_title": "மாயவன்",
      "genre_ids": [
        28,
        878,
        53
      ],
      "backdrop_path": "/d9dZF1g0zRF6GfREHaDRmyv4eSy.jpg",
      "adult": false,
      "overview": "Mayavan is an upcoming Indian Tamil science fiction thriller film co produced and directed by C. V. Kumar. The film features Sundeep Kishan and Lavanya Tripathi in the lead roles, while Daniel Balaji and Jackie Shroff play supporting roles. Featuring music composed by Ghibran, the film was launched in February 2016.",
      "release_date": "2017-10-31"
    },
    {
      "vote_count": 3,
      "id": 443484,
      "video": false,
      "vote_average": 0,
      "title": "The Swan Princess: Royally Undercover",
      "popularity": 2.754642,
      "poster_path": "/yZDePc6NwkwBdrWejjBCG8AWoYF.jpg",
      "original_language": "en",
      "original_title": "The Swan Princess: Royally Undercover",
      "genre_ids": [
        16,
        10751
      ],
      "backdrop_path": "/3fK8UaEJzgi1SZwHZVA5Jbo2GxR.jpg",
      "adult": false,
      "overview": "Princess Alise, Lucas and their royal woodland friends are going undercover on a secret spy adventure!",
      "release_date": "2017-10-31"
    },
    {
      "vote_count": 0,
      "id": 457862,
      "video": false,
      "vote_average": 0,
      "title": "Yung Mung Sung",
      "popularity": 15.675949,
      "poster_path": "/6svfK2Rlzxpib20964Ijlo5ePHT.jpg",
      "original_language": "ta",
      "original_title": "யங் மங் சங்",
      "genre_ids": [
        18,
        35,
        28
      ],
      "backdrop_path": "/sqLh3NRr0gCrqJEVTDEkbLpsVri.jpg",
      "adult": false,
      "overview": "Yung Mung Sung is an upcoming Tamil comedy drama film written and directed by M. S. Arjun. Prabhu Deva features in the leading role, while Lakshmi Menon selected as lead heroine,while Thangar Bachan and RJ Balaji play other pivotal roles.",
      "release_date": "2017-10-31"
    },
    {
      "vote_count": 0,
      "id": 457871,
      "video": false,
      "vote_average": 0,
      "title": "Kalki",
      "popularity": 14.1511,
      "poster_path": "/wCJqzQlzbwW83Z6Tp1DLBKvbebe.jpg",
      "original_language": "ta",
      "original_title": "கல்கி",
      "genre_ids": [
        18,
        80
      ],
      "backdrop_path": "/3YE7b4wKWEPXw24T4xQmTAKVpsL.jpg",
      "adult": false,
      "overview": "Kalki is an upcoming Tamil movie directed by Dhilip, while cinematography was handled by Vijay Karthick Kanan. The film stars Kishore and Yasmin in the lead role.",
      "release_date": "2017-10-31"
    },
    {
      "vote_count": 0,
      "id": 452890,
      "video": false,
      "vote_average": 0,
      "title": "Body Farm",
      "popularity": 19.587286,
      "poster_path": null,
      "original_language": "en",
      "original_title": "Body Farm",
      "genre_ids": [],
      "backdrop_path": null,
      "adult": false,
      "overview": "An independent film company sends a videographer ahead of a story to investigate a body farm where human decomposition is researched. The footage she sends back leads the rest of the team to follow her steps and uncover a grisly medical abyss.",
      "release_date": "2017-10-31"
    },
    {
      "vote_count": 0,
      "id": 456296,
      "video": false,
      "vote_average": 0,
      "title": "En Aaloda Seruppa Kaanom",
      "popularity": 12.638294,
      "poster_path": "/7YaAWEIRZRGVPzepDIb5aCXq40X.jpg",
      "original_language": "ta",
      "original_title": "என் ஆளோட செருப்பக் காணோம்",
      "genre_ids": [
        10749,
        35
      ],
      "backdrop_path": "/xHMh6OKCpY5fIhp8tgBZwbLRxaS.jpg",
      "adult": false,
      "overview": "En Aaloda Seruppa Kaanom is an upcoming Tamil comedy drama film written and directed by K. P. Jagan. Anandhi, Tamizh and Yogi Babu play the film's lead roles, amongst an ensemble cast. The film began production in February 2017.",
      "release_date": "2017-10-31"
    },
    {
      "vote_count": 0,
      "id": 484401,
      "video": false,
      "vote_average": 0,
      "title": "I Will Never Be the Same",
      "popularity": 3,
      "poster_path": "/7o9cbQZ1zUFmc2xknhY08teNH57.jpg",
      "original_language": "en",
      "original_title": "I Will Never Be the Same",
      "genre_ids": [],
      "backdrop_path": null,
      "adult": false,
      "overview": "",
      "release_date": "2017-10-31"
    },
    {
      "vote_count": 0,
      "id": 484404,
      "video": false,
      "vote_average": 0,
      "title": "Boris",
      "popularity": 3,
      "poster_path": "/sIIY5T4dfqgkov06n0bIgOvpLWN.jpg",
      "original_language": "en",
      "original_title": "Boris",
      "genre_ids": [],
      "backdrop_path": null,
      "adult": false,
      "overview": "",
      "release_date": "2017-10-31"
    },
    {
      "vote_count": 0,
      "id": 484405,
      "video": false,
      "vote_average": 0,
      "title": "Tripped",
      "popularity": 3,
      "poster_path": "/qurgaMHyj2IE3pSHl1RhSWuZ3xs.jpg",
      "original_language": "en",
      "original_title": "Tripped",
      "genre_ids": [],
      "backdrop_path": null,
      "adult": false,
      "overview": "",
      "release_date": "2017-10-31"
    },
    {
      "vote_count": 0,
      "id": 484407,
      "video": false,
      "vote_average": 0,
      "title": "Pumpkin Movie",
      "popularity": 3,
      "poster_path": "/fDdI5h05lDRT44GsKU83jphCOtD.jpg",
      "original_language": "en",
      "original_title": "Pumpkin Movie",
      "genre_ids": [],
      "backdrop_path": null,
      "adult": false,
      "overview": "",
      "release_date": "2017-10-31"
    },
    {
      "vote_count": 0,
      "id": 484413,
      "video": false,
      "vote_average": 0,
      "title": "Judah Friedlander: America Is the Greatest Country in the United States",
      "popularity": 3,
      "poster_path": null,
      "original_language": "en",
      "original_title": "Judah Friedlander: America Is the Greatest Country in the United States",
      "genre_ids": [
        35
      ],
      "backdrop_path": null,
      "adult": false,
      "overview": "Deadpan comic and self-proclaimed world champion Judah Friedlander performs over several nights in New York, explaining why America is No. 1.",
      "release_date": "2017-10-31"
    }
  ]
}